{
  "version": "v4",
  "repo": "borisyankov/DefinitelyTyped",
  "ref": "master",
  "path": "typings",
  "bundle": "typings/tsd.d.ts",
  "installed": {
    "express/express.d.ts": {
      "commit": "35989a3ab4834b8e8b2b56788f1d4fc46a25dc8d"
    },
    "serve-static/serve-static.d.ts": {
      "commit": "35989a3ab4834b8e8b2b56788f1d4fc46a25dc8d"
    },
    "mime/mime.d.ts": {
      "commit": "35989a3ab4834b8e8b2b56788f1d4fc46a25dc8d"
    },
    "node/node.d.ts": {
      "commit": "421d6610bdb09e1015b71f5991d7a68d079eca21"
    },
    "express-handlebars/express-handlebars.d.ts": {
      "commit": "ac5cd185d007f6aacd6eeaaecfb75dae3ff59553"
    },
    "es6-promise/es6-promise.d.ts": {
      "commit": "ac5cd185d007f6aacd6eeaaecfb75dae3ff59553"
    },
    "body-parser/body-parser.d.ts": {
      "commit": "0dd29bf8253536ae24e61c109524e924ea510046"
    },
    "knex/knex.d.ts": {
      "commit": "0dd29bf8253536ae24e61c109524e924ea510046"
    },
    "bluebird/bluebird.d.ts": {
      "commit": "0dd29bf8253536ae24e61c109524e924ea510046"
    },
    "bcrypt/bcrypt.d.ts": {
      "commit": "001ca36ba58cef903c4c063555afb07bbc36bb58"
    },
    "multer/multer.d.ts": {
      "commit": "35989a3ab4834b8e8b2b56788f1d4fc46a25dc8d"
    },
    "node-uuid/node-uuid.d.ts": {
      "commit": "421d6610bdb09e1015b71f5991d7a68d079eca21"
    },
    "node-uuid/node-uuid-base.d.ts": {
      "commit": "421d6610bdb09e1015b71f5991d7a68d079eca21"
    },
    "node-uuid/node-uuid-cjs.d.ts": {
      "commit": "421d6610bdb09e1015b71f5991d7a68d079eca21"
    }
  }
}
